{
    "0": {
        "name"      :   "Trứng vịt lộn",
        "left"      :   5,
        "price"     :   12000,
        "parent"    :   null,
        "is_leaf"   :   true
    },
    "1": {
        "name"      :   "Thịt chó",
        "parent"    :   null,
        "is_leaf"   :   false
    },
    "2": {
        "name"      :   "Rựa mận",
        "left"      :   20,
        "price"     :   6000,
        "parent"    :   "1",
        "is_leaf"   :   true
    },
    "3": {
        "name"      :   "Xào lăn",
        "left"      :   7,
        "price"     :   8000,
        "parent"    :   "1",
        "is_leaf"   :   true  
    },
    "4": {
        "name"      :   "Giò",
        "parent"    :   null,
        "is_leaf"   :   false
    },
    "5": {
        "name"      :   "Giò bò",
        "left"      :   50,
        "price"     :   4000,
        "parent"    :   "4",
        "is_leaf"   :   true  
    },
    "6": {
        "name"      :   "Giò lợn",
        "left"      :   50,
        "price"     :   3000,
        "parent"    :   "4",
        "is_leaf"   :   true 
    },
    "7": {
        "name"      :   "Cá rán",
        "left"      :   8,
        "price"     :   9000,
        "parent"    :   null,
        "is_leaf"   :   true 
    }
}