{
    "Trứng vịt lộn": {
            "id"   : 0,
            "price": 12000,
            "left" : 5
    },
    "Thịt chó":[
        {
            "Rựa mận" : {
                "id"    : 1,
                "price" : 6000,
                "left"  : 20
            }
        },
        {
            "Xào lăn" : {
                "id"    : 2,
                "price" : 8000,
                "left"  : 7
            }
        }
    ], 
    "Giò":[
        {
            "Giò bò" : {
                "id"    : 3,
                "price" : 4000,
                "left"  : 50
            }
        },
        {
            "Giò lợn": {
                "id"    : 4,
                "price" : 3000,
                "left"  : 50
            }
        }
    ]
}
